{
    "_links": {
        "self": {
            "href": "https://find-api.chd-expert.us/v1/api/operator?country=fr&city=paris&business_name=coffee&page=2"
        },
        "first": {
            "href": "https://find-api.chd-expert.us/v1/api/operator?country=fr&city=paris&business_name=coffee"
        },
        "last": {
            "href": "https://find-api.chd-expert.us/v1/api/operator?country=fr&city=paris&business_name=coffee&page=4"
        },
        "prev": {
            "href": "https://find-api.chd-expert.us/v1/api/operator?country=fr&city=paris&business_name=coffee&page=1"
        },
        "next": {
            "href": "https://find-api.chd-expert.us/v1/api/operator?country=fr&city=paris&business_name=coffee&page=3"
        }
    },
    "_embedded": {
        "operator": [
            {
                "address": "4 RUE AUBRY LE BOUCHER",
                "business_name": "STARBUCKS COFFEE",
                "chain_name": "STARBUCKS COFFEE",
                "chd_id": "FR02100117326326",
                "city": "PARIS",
                "country": "FR",
                "last_update": "2017-06-25 00:34:51",
                "legal_name": "SAS STARBUCKS COFFEE FRANCE",
                "location": {
                    "lon": "2.3505123",
                    "lat": "48.8603803"
                },
                "market_segment": "2342",
                "market_segment_category": "23",
                "matching_score": 7.4271364,
                "postal_code": "75004",
                "region1": "75",
                "sector": "COMMERCIAL",
                "_links": {
                    "self": {
                        "href": "https://find-api.chd-expert.us/v1/api/operator/FR02100117326326"
                    }
                }
            },
            {
                "address": "76 AVENUE DU GENERAL LECLERC",
                "business_name": "STARBUCKS COFFEE",
                "chain_name": "STARBUCKS COFFEE",
                "chd_id": "FR02100117326800",
                "city": "PARIS",
                "country": "FR",
                "last_update": "2017-06-25 00:34:51",
                "legal_name": "SAS STARBUCKS COFFEE FRANCE",
                "location": {
                    "lon": "2.3275572",
                    "lat": "48.8291598"
                },
                "market_segment": "2342",
                "market_segment_category": "23",
                "matching_score": 7.4271364,
                "postal_code": "75014",
                "region1": "75",
                "sector": "COMMERCIAL",
                "_links": {
                    "self": {
                        "href": "https://find-api.chd-expert.us/v1/api/operator/FR02100117326800"
                    }
                }
            },
            {
                "address": "7 BOULEVARD POISSONNIERE",
                "business_name": "STARBUCKS COFFEE",
                "chain_name": "STARBUCKS COFFEE",
                "chd_id": "FR02100117364909",
                "city": "PARIS",
                "country": "FR",
                "last_update": "2017-06-25 00:34:51",
                "legal_name": "SAS STARBUCKS COFFEE FRANCE",
                "location": {
                    "lon": "2.3474827",
                    "lat": "48.8689272"
                },
                "market_segment": "2342",
                "market_segment_category": "23",
                "matching_score": 7.4271364,
                "postal_code": "75002",
                "region1": "75",
                "sector": "COMMERCIAL",
                "_links": {
                    "self": {
                        "href": "https://find-api.chd-expert.us/v1/api/operator/FR02100117364909"
                    }
                }
            },
            {
                "address": "4 RUE DE SEZE",
                "business_name": "STARBUCKS COFFEE",
                "chain_name": "STARBUCKS COFFEE",
                "chd_id": "FR02100117366727",
                "city": "PARIS",
                "country": "FR",
                "last_update": "2017-06-25 00:34:51",
                "legal_name": "STARBUCKS COFFEE FRANCE",
                "location": {
                    "lon": "2.3274959",
                    "lat": "48.8703900"
                },
                "market_segment": "2342",
                "market_segment_category": "23",
                "matching_score": 7.4271364,
                "postal_code": "75009",
                "region1": "75",
                "sector": "COMMERCIAL",
                "_links": {
                    "self": {
                        "href": "https://find-api.chd-expert.us/v1/api/operator/FR02100117366727"
                    }
                }
            },
            {
                "address": "29 RUE DU FAUBOURG SAINT ANTOINE",
                "business_name": "STARBUCKS COFFEE",
                "chain_name": "STARBUCKS COFFEE",
                "chd_id": "FR02100117367706",
                "city": "PARIS",
                "country": "FR",
                "last_update": "2017-06-25 00:34:51",
                "legal_name": "SAS STARBUCKS COFFEE FRANCE",
                "location": {
                    "lon": "2.3717709",
                    "lat": "48.8528060"
                },
                "market_segment": "2342",
                "market_segment_category": "23",
                "matching_score": 7.4271364,
                "postal_code": "75011",
                "region1": "75",
                "sector": "COMMERCIAL",
                "_links": {
                    "self": {
                        "href": "https://find-api.chd-expert.us/v1/api/operator/FR02100117367706"
                    }
                }
            },
            {
                "address": "107 AVENUE DE FRANCE",
                "business_name": "STARBUCKS COFFEE",
                "chain_name": "STARBUCKS COFFEE",
                "chd_id": "FR02100117368312",
                "city": "PARIS",
                "country": "FR",
                "last_update": "2017-06-25 00:34:51",
                "legal_name": "SAS STARBUCKS COFFEE FRANCE",
                "location": {
                    "lon": "2.3769337",
                    "lat": "48.8299509"
                },
                "market_segment": "2342",
                "market_segment_category": "23",
                "matching_score": 7.4271364,
                "postal_code": "75013",
                "region1": "75",
                "sector": "COMMERCIAL",
                "_links": {
                    "self": {
                        "href": "https://find-api.chd-expert.us/v1/api/operator/FR02100117368312"
                    }
                }
            },
            {
                "address": "90 AVENUE VICTOR HUGO",
                "business_name": "STARBUCKS COFFEE",
                "chain_name": "STARBUCKS COFFEE",
                "chd_id": "FR02100117370130",
                "city": "PARIS",
                "country": "FR",
                "last_update": "2017-06-25 00:34:51",
                "legal_name": "SAS STARBUCKS COFFEE FRANCE",
                "location": {
                    "lon": "2.2839057",
                    "lat": "48.8691493"
                },
                "market_segment": "2342",
                "market_segment_category": "23",
                "matching_score": 7.4271364,
                "postal_code": "75116",
                "region1": "75",
                "sector": "COMMERCIAL",
                "_links": {
                    "self": {
                        "href": "https://find-api.chd-expert.us/v1/api/operator/FR02100117370130"
                    }
                }
            },
            {
                "address": "5 PLACE BLANCHE",
                "business_name": "STARBUCKS COFFEE",
                "chain_name": "STARBUCKS COFFEE",
                "chd_id": "FR02100119412727",
                "city": "PARIS",
                "country": "FR",
                "last_update": "2017-06-25 00:36:53",
                "legal_name": "STARBUCKS COFFEE FRANCE",
                "location": {
                    "lon": "2.3321363",
                    "lat": "48.8835333"
                },
                "market_segment": "2342",
                "market_segment_category": "23",
                "matching_score": 7.4271364,
                "postal_code": "75009",
                "region1": "75",
                "sector": "COMMERCIAL",
                "_links": {
                    "self": {
                        "href": "https://find-api.chd-expert.us/v1/api/operator/FR02100119412727"
                    }
                }
            },
            {
                "address": "43 AVENUE FELIX FAURE",
                "business_name": "STARBUCKS COFFEE",
                "chain_name": "STARBUCKS COFFEE",
                "chd_id": "FR02100135709023",
                "city": "PARIS",
                "country": "FR",
                "last_update": "2017-06-25 00:58:02",
                "legal_name": "SAS STARBUCKS COFFEE FRANCE",
                "location": {
                    "lon": "2.2877927",
                    "lat": "48.8408396"
                },
                "market_segment": "2342",
                "market_segment_category": "23",
                "matching_score": 7.4271364,
                "postal_code": "75015",
                "region1": "75",
                "sector": "COMMERCIAL",
                "_links": {
                    "self": {
                        "href": "https://find-api.chd-expert.us/v1/api/operator/FR02100135709023"
                    }
                }
            },
            {
                "address": "38 RUE NOTRE DAME DE LORETTE",
                "business_name": "SEMILLEROS DE COLOMBIA",
                "chd_id": "FR0210064536610",
                "city": "PARIS",
                "country": "FR",
                "last_update": "2017-06-25 01:07:51",
                "legal_name": "COFFEE INVESTMENTS GROUP",
                "location": {
                    "lon": "2.3370175",
                    "lat": "48.8790024"
                },
                "market_segment": "2831",
                "market_segment_category": "28",
                "matching_score": 7.4271364,
                "postal_code": "75009",
                "region1": "75",
                "sector": "COMMERCIAL",
                "_links": {
                    "self": {
                        "href": "https://find-api.chd-expert.us/v1/api/operator/FR0210064536610"
                    }
                }
            },
            {
                "address": "71 RUE DU CHERCHE MIDI",
                "business_name": "COFFEE ROOM",
                "chd_id": "FR0210064634326",
                "city": "PARIS",
                "country": "FR",
                "last_update": "2017-06-25 01:07:51",
                "legal_name": "COFFEE ROOM S",
                "location": {
                    "lon": "2.3239292",
                    "lat": "48.8476463"
                },
                "market_segment": "2120",
                "market_segment_category": "21",
                "matching_score": 7.4271364,
                "postal_code": "75006",
                "region1": "75",
                "sector": "COMMERCIAL",
                "_links": {
                    "self": {
                        "href": "https://find-api.chd-expert.us/v1/api/operator/FR0210064634326"
                    }
                }
            },
            {
                "address": "70 BOULEVARD DU MONTPARNASSE",
                "business_name": "STARBUCKS COFFEE",
                "chain_name": "STARBUCKS COFFEE",
                "chd_id": "FR02100130023522",
                "city": "PARIS",
                "country": "FR",
                "last_update": "2017-06-25 00:52:26",
                "legal_name": "SAS STARBUCKS COFFEE FRANCE",
                "location": {
                    "lon": "2.3246707",
                    "lat": "48.8432372"
                },
                "market_segment": "2342",
                "market_segment_category": "23",
                "matching_score": 7.4271364,
                "postal_code": "75014",
                "region1": "75",
                "sector": "COMMERCIAL",
                "_links": {
                    "self": {
                        "href": "https://find-api.chd-expert.us/v1/api/operator/FR02100130023522"
                    }
                }
            },
            {
                "address": "91 BOULEVARD SAINT GERMAIN",
                "business_name": "STARBUCKS COFFEE",
                "chain_name": "STARBUCKS COFFEE",
                "chd_id": "FR02100123721626",
                "city": "PARIS",
                "country": "FR",
                "last_update": "2017-06-25 00:41:00",
                "legal_name": "SAS STARBUCKS COFFEE FRANCE",
                "location": {
                    "lon": "2.3394377",
                    "lat": "48.8519570"
                },
                "market_segment": "2342",
                "market_segment_category": "23",
                "matching_score": 7.4271364,
                "postal_code": "75006",
                "region1": "75",
                "sector": "COMMERCIAL",
                "_links": {
                    "self": {
                        "href": "https://find-api.chd-expert.us/v1/api/operator/FR02100123721626"
                    }
                }
            },
            {
                "address": "50 RUE DE BELLEVILLE",
                "business_name": "CREAM",
                "chd_id": "FR0210124101903",
                "city": "PARIS",
                "country": "FR",
                "last_update": "2017-06-25 01:38:40",
                "legal_name": "T E A COFFEE",
                "location": {
                    "lon": "2.3814762",
                    "lat": "48.8730508"
                },
                "market_segment": "2120",
                "market_segment_category": "21",
                "matching_score": 7.4271364,
                "postal_code": "75020",
                "region1": "75",
                "sector": "COMMERCIAL",
                "_links": {
                    "self": {
                        "href": "https://find-api.chd-expert.us/v1/api/operator/FR0210124101903"
                    }
                }
            },
            {
                "address": "90 RUE SAINT DOMINIQUE",
                "business_name": "STARBUCKS COFFEE",
                "chain_name": "STARBUCKS COFFEE",
                "chd_id": "FR02100124121526",
                "city": "PARIS",
                "country": "FR",
                "last_update": "2017-06-25 00:42:37",
                "legal_name": "SAS STARBUCKS COFFEE FRANCE",
                "location": {
                    "lon": "2.3060888",
                    "lat": "48.8595234"
                },
                "market_segment": "2342",
                "market_segment_category": "23",
                "matching_score": 7.4271364,
                "postal_code": "75007",
                "region1": "75",
                "sector": "COMMERCIAL",
                "_links": {
                    "self": {
                        "href": "https://find-api.chd-expert.us/v1/api/operator/FR02100124121526"
                    }
                }
            },
            {
                "address": "8 RUE DE RIVOLI",
                "business_name": "STARBUCKS COFFEE",
                "chain_name": "STARBUCKS COFFEE",
                "chd_id": "FR02100123289615",
                "city": "PARIS",
                "country": "FR",
                "last_update": "2017-06-25 00:40:09",
                "legal_name": "SAS STARBUCKS COFFEE FRANCE",
                "location": {
                    "lon": "2.3346227",
                    "lat": "48.8628058"
                },
                "market_segment": "2342",
                "market_segment_category": "23",
                "matching_score": 7.4271364,
                "postal_code": "75001",
                "region1": "75",
                "sector": "COMMERCIAL",
                "_links": {
                    "self": {
                        "href": "https://find-api.chd-expert.us/v1/api/operator/FR02100123289615"
                    }
                }
            },
            {
                "address": "13 BOULEVARD SAINT MICHEL",
                "business_name": "STARBUCKS COFFEE",
                "chain_name": "STARBUCKS COFFEE",
                "chd_id": "FR0210098204630",
                "city": "PARIS",
                "country": "FR",
                "last_update": "2017-06-25 01:22:31",
                "legal_name": "STARBUCKS COFFEE FRANCE",
                "location": {
                    "lon": "2.3437026",
                    "lat": "48.8519600"
                },
                "market_segment": "2342",
                "market_segment_category": "23",
                "matching_score": 7.4271364,
                "postal_code": "75005",
                "region1": "75",
                "sector": "COMMERCIAL",
                "_links": {
                    "self": {
                        "href": "https://find-api.chd-expert.us/v1/api/operator/FR0210098204630"
                    }
                }
            },
            {
                "address": "23 AVENUE DE WAGRAM",
                "business_name": "STARBUCKS COFFEE",
                "chain_name": "STARBUCKS COFFEE",
                "chd_id": "FR02100140681928",
                "city": "PARIS",
                "country": "FR",
                "last_update": "2017-06-25 01:05:54",
                "legal_name": "STARBUCKS COFFEE FRANCE",
                "location": {
                    "lon": "2.2963619",
                    "lat": "48.8762129"
                },
                "market_segment": "2342",
                "market_segment_category": "23",
                "matching_score": 7.4271364,
                "postal_code": "75017",
                "region1": "75",
                "sector": "COMMERCIAL",
                "_links": {
                    "self": {
                        "href": "https://find-api.chd-expert.us/v1/api/operator/FR02100140681928"
                    }
                }
            },
            {
                "address": "77 RUE RAMBUTEAU",
                "business_name": "STARBUCKS COFFEE",
                "chain_name": "STARBUCKS COFFEE",
                "chd_id": "FR02100140689915",
                "city": "PARIS",
                "country": "FR",
                "last_update": "2017-06-25 01:05:54",
                "legal_name": "STARBUCKS COFFEE FRANCE",
                "location": {
                    "lon": "2.3496854",
                    "lat": "48.8620254"
                },
                "market_segment": "2342",
                "market_segment_category": "23",
                "matching_score": 7.4271364,
                "postal_code": "75001",
                "region1": "75",
                "sector": "COMMERCIAL",
                "_links": {
                    "self": {
                        "href": "https://find-api.chd-expert.us/v1/api/operator/FR02100140689915"
                    }
                }
            },
            {
                "address": "99 AVENUE D IVRY",
                "business_name": "BOBA TEA COFFEE",
                "chd_id": "FR0210092356919",
                "city": "PARIS",
                "country": "FR",
                "last_update": "2017-06-25 01:19:15",
                "legal_name": "BTC BOBA TEA COFFEE",
                "location": {
                    "lon": "2.3617429",
                    "lat": "48.8251445"
                },
                "market_segment": "2342",
                "market_segment_category": "23",
                "matching_score": 7.4271364,
                "postal_code": "75013",
                "region1": "75",
                "sector": "COMMERCIAL",
                "_links": {
                    "self": {
                        "href": "https://find-api.chd-expert.us/v1/api/operator/FR0210092356919"
                    }
                }
            },
            {
                "address": "103 RUE DE PRONY",
                "business_name": "YOSHI",
                "chd_id": "FR0210114183821",
                "city": "PARIS",
                "country": "FR",
                "last_update": "2017-06-25 01:35:01",
                "legal_name": "OUYA S COFFEE",
                "location": {
                    "lon": "2.2985419",
                    "lat": "48.8845077"
                },
                "market_segment": "2120",
                "market_segment_category": "21",
                "matching_score": 7.4271364,
                "postal_code": "75017",
                "region1": "75",
                "sector": "COMMERCIAL",
                "_links": {
                    "self": {
                        "href": "https://find-api.chd-expert.us/v1/api/operator/FR0210114183821"
                    }
                }
            },
            {
                "address": "67 RUE LA FAYETTE",
                "business_name": "STARBUCKS COFFEE",
                "chain_name": "STARBUCKS COFFEE",
                "chd_id": "FR0210083487920",
                "city": "PARIS",
                "country": "FR",
                "last_update": "2017-06-25 01:17:28",
                "legal_name": "STARBUCKS COFFEE FRANCE",
                "location": {
                    "lon": "2.3446038",
                    "lat": "48.8762629"
                },
                "market_segment": "2342",
                "market_segment_category": "23",
                "matching_score": 7.4271364,
                "postal_code": "75009",
                "region1": "75",
                "sector": "COMMERCIAL",
                "_links": {
                    "self": {
                        "href": "https://find-api.chd-expert.us/v1/api/operator/FR0210083487920"
                    }
                }
            },
            {
                "address": "2 PLACE DE LA PORTE MAILLOT",
                "business_name": "STARBUCKS COFFEE",
                "chain_name": "STARBUCKS COFFEE",
                "chd_id": "FR0210083488021",
                "city": "PARIS",
                "country": "FR",
                "last_update": "2017-06-25 01:17:28",
                "legal_name": "STARBUCKS COFFEE FRANCE",
                "location": {
                    "lon": "2.2834689",
                    "lat": "48.8791622"
                },
                "market_segment": "2342",
                "market_segment_category": "23",
                "matching_score": 7.4271364,
                "postal_code": "75017",
                "region1": "75",
                "sector": "COMMERCIAL",
                "_links": {
                    "self": {
                        "href": "https://find-api.chd-expert.us/v1/api/operator/FR0210083488021"
                    }
                }
            },
            {
                "address": "83 RUE SAINT CHARLES",
                "business_name": "STARBUCKS COFFEE",
                "chain_name": "STARBUCKS COFFEE",
                "chd_id": "FR0210083488627",
                "city": "PARIS",
                "country": "FR",
                "last_update": "2017-06-25 01:17:28",
                "legal_name": "STARBUCKS COFFEE FRANCE",
                "location": {
                    "lon": "2.2860287",
                    "lat": "48.8470884"
                },
                "market_segment": "2342",
                "market_segment_category": "23",
                "matching_score": 7.4271364,
                "postal_code": "75015",
                "region1": "75",
                "sector": "COMMERCIAL",
                "_links": {
                    "self": {
                        "href": "https://find-api.chd-expert.us/v1/api/operator/FR0210083488627"
                    }
                }
            },
            {
                "address": "1 RUE HOUDART DE LAMOTTE",
                "business_name": "STARBUCKS COFFEE",
                "chain_name": "STARBUCKS COFFEE",
                "chd_id": "FR0210083489000",
                "city": "PARIS",
                "country": "FR",
                "last_update": "2017-06-25 01:17:28",
                "legal_name": "STARBUCKS COFFEE FRANCE",
                "location": {
                    "lon": "2.2877764",
                    "lat": "48.8408053"
                },
                "market_segment": "2342",
                "market_segment_category": "23",
                "matching_score": 7.4271364,
                "postal_code": "75015",
                "region1": "75",
                "sector": "COMMERCIAL",
                "_links": {
                    "self": {
                        "href": "https://find-api.chd-expert.us/v1/api/operator/FR0210083489000"
                    }
                }
            }
        ]
    },
    "page_count": 4,
    "page_size": 25,
    "total_items": 97,
    "page": 2
}